{
    "Gamma": 155,
    "GammaHD": 2400,
    "PaperWhiteNits": 200,
    "MaxLuminance": 600,
    "HDRContrast": 200,
    "Contrast": 100,
    "Screen Resolution (Windowed)": "",
    "Resolution Scale": 100,
    "Sharpening": 6,
    "Game Resolution": 1,
    "Legacy Graphics Mode": 0,
    "Light Quality": 2,
    "Blended Shadows": 0,
    "Perspective": 0,
    "VSync": 1,
    "Framerate Cap": 0,
    "Framerate Target": 0,
    "Window Mode": 1,
    "Confine Cursor": 0,
    "Graphic Presets": 1,
    "Texture Quality": 3,
    "Texture Anisotropy": 0,
    "Ambient Occlusion Quality": 2,
    "Character Detail": 3,
    "Environment Detail": 3,
    "Atmospherics Quality": 3,
    "Transparency Quality": 3,
    "Shadow Quality": 2,
    "Anti Aliasing": 1,
    "Dynamic Resolution Scaling": 0,
    "Vfx Quality": 2,
    "Vfx Lighting Quality": 1,
    "Safe Screen Percent": 100,
    "Graphics Mode": 0,
    "NVIDIA DLSS": 0,
    "AutoMapMode": 0,
    "AutoMapFade": 1,
    "AutoMapFadeAllCustomOpacity": 50,
    "AutoMap Centers": 1,
    "AutoMap Party": 1,
    "AutoMap Party Names": 1,
    "Automap Room Name and Password": 1,
    "AutoMap Desecrated Zone": 1,
    "AutoMap Open On Load": 0,
    "Chat Font Size": 1,
    "Combat Feedback": 0,
    "Camera Shake": 1,
    "Low Vision Mode": 0,
    "Color Blind Mode": 0,
    "Color Blind Strength": 100,
    "Subtitles": 1,
    "GreetingsSubtitles": 0,
    "Controller Cursor Speed": 2800,
    "Controller Weapon Swap Separate Bindings": 0,
    "Controller Rumble Enabled": 1,
    "Controller Swap Thumbsticks": 0,
    "Skill Ammo Feedback": 1,
    "Item Tooltip Hotkey Appender": 1,
    "Show Clock": 1,
    "Show HP Text": 1,
    "Show MP Text": 0,
    "Auto Gold Enabled": 1,
    "Auto Party Invite": 1,
    "Offline Difficulty Scaling": 8,
    "Default Key Bindings": 0,
    "Chat Gem Mode": 1,
    "Item Name Display": 1,
    "Chat Background": 0,
    "Display Active Skill Bindings": 1,
    "Persistent Ignore": 1,
    "Quick Cast Enabled": 0,
    "Master Volume": 15,
    "Music Volume": 16,
    "Options Music": 1,
    "NPC Speech": 2,
    "Language": 0,
    "VoiceLanguage": 0,
    "Advanced Audio Preset": 0,
    "Mono Mode": 0,
    "Verb Disable": 0,
    "Controller Feedback": 0,
    "Text to Speech": 0,
    "TTS Speed": 50,
    "TTS Volume": 100,
    "Audio AdvancedVO Preset 0": 100,
    "Audio AdvancedSFX Preset 0": 100,
    "Audio AdvancedAmbient Preset 0": 100,
    "Audio AdvancedCombat Preset 0": 100,
    "Audio AdvancedUI Preset 0": 100,
    "Audio AdvancedItems Preset 0": 100,
    "Audio AdvancedMonsters Preset 0": 100,
    "Audio AdvancedPlayerSkills Preset 0": 100,
    "Max Difference Enabled": 0,
    "Max Players": 8,
    "Max Difference": 10,
    "Desecrated Zones Enabled": 1,
    "Wide Item Drop Enabled": 1,
    "Allow Bnet Friends Join": 1,
    "Allow Chat": 1,
    "Private Game Security": 0,
    "Lobby Difficulty": 0,
    "Lobby Max Players": 8,
    "Lobby Max Difference": 10,
    "Lobby Level Difference Enabled": 1,
    "Lobby Allow Bnet Friends Join": 1,
    "Lobby Wide Item Drop Enabled": 1,
    "Aux Battle.net": "216.148.246.178",
    "First Time": 1,
    "Tutorial": 1,
    "Always Run": 1,
    "Help Menu": 1
}